{
  "compilerOptions": {
    "jsx": "react-jsx",
    "jsxImportSource": "preact"
  },
  "importMap": "./import-map.json",
  "tasks": {
    "start": "deno run -A --watch=static/,routes/ dev.ts"
  },
  "version": "0.1.0"
}
